R am BIBB - 5 Data Wrangling I: Labels
…
Erstellen Sie einen factor() Variable F411_01_fct2 mit den den gewünschten Beschriftungen mit Hilfe von labels =. (Sie können die Labels der Variable F411_01 mit attributes(etb18_kap5$F411_01)$labels nachsehen.)

Verwenden Sie die gelabelten Variablen für die Grafik.

Bonusübung: Was müssten wir ändern, um die Grafik nach Geschlecht (S1) zu erstellen?

5.4 Anhang

5.4.1 Labels löschen mit zap_... aus {haven}

Häufig führen die Label-attributes() zu Problemen in der weiteren Verarbeitung. Mit haven::zap_labels() können wir die Value labels aus einem Datensatz löschen mit haven::zap_label() können wir die Variable labels entfernen.

etb18_kap5

# A tibble: 19,827 × 8
   intnr    az zpalter   Bula        S1           F411_01      m1202      S1_fct
   <dbl> <dbl> <dbl+lbl> <dbl+lbl>   <dbl+lbl>    <dbl+lbl>    <dbl+lbl>  <fct> 
 1   260    80 41        11 [Berlin] 1 [männlich] 1 [häufig]   4 [Fachho… männl…
 2   361    30 51        11 [Berlin] 2 [weiblich] 2 [manchmal] 2 [duale … weibl…
 3   491    40 49        11 [Berlin] 1 [männlich] 2 [manchmal] 4 [Fachho… männl…
 4   690    40 63        11 [Berlin] 2 [weiblich] 2 [manchmal] 4 [Fachho… weibl…
 5   919    39 41        11 [Berlin] 2 [weiblich] 2 [manchmal] 2 [duale … weibl…
 6  1041    40 57        11 [Berlin] 1 [männlich] 1 [häufig]   2 [duale … männl…
 7  1077    12 62        11 [Berlin] 1 [männlich] 2 [manchmal] 4 [Fachho… männl…
 8  1306    30 59        11 [Berlin] 2 [weiblich] 3 [selten]   2 [duale … weibl…
 9  1357    42 32        11 [Berlin] 2 [weiblich] 1 [häufig]   4 [Fachho… weibl…
10  1488    48 62        11 [Berlin] 2 [weiblich] 1 [häufig]   4 [Fachho… weibl…
# … with 19,817 more rows

etb18_kap5 %>% 
  haven::zap_labels() # value labels raus

# A tibble: 19,827 × 8
   intnr    az zpalter  Bula    S1 F411_01 m1202 S1_fct  
   <dbl> <dbl>   <dbl> <dbl> <dbl>   <dbl> <dbl> <fct>   
 1   260    80      41    11     1       1     4 männlich
 2   361    30      51    11     2       2     2 weiblich
 3   491    40      49    11     1       2     4 männlich
 4   690    40      63    11     2       2     4 weiblich
 5   919    39      41    11     2       2     2 weiblich
 6  1041    40      57    11     1       1     2 männlich
 7  1077    12      62    11     1       2     4 männlich
 8  1306    30      59    11     2       3     2 weiblich
 9  1357    42      32    11     2       1     4 weiblich
10  1488    48      62    11     2       1     4 weiblich
# … with 19,817 more rows
…
