R am BIBB - 9 Regressionsmodelle: Erweiterungen
…
9  Regressionsmodelle: Erweiterungen

library(tidyverse)

Nach den basics für Regressionsmodelle sehen wir uns in diesem Kapitel einige hilfreiche Erweiterungen von Regressionsmodellen in R an

Die folgenden Beispiele basieren vornehmlich auf dem starwars-Datensatz aus {dplyr}, hier ein kurzer Blick in die Daten:

starwars %>% select(name,height,mass,hair_color,gender)

# A tibble: 87 × 5
   name               height  mass hair_color    gender   
   <chr>               <int> <dbl> <chr>         <chr>    
 1 Luke Skywalker        172    77 blond         masculine
 2 C-3PO                 167    75 <NA>          masculine
 3 R2-D2                  96    32 <NA>          masculine
 4 Darth Vader           202   136 none          masculine
 5 Leia Organa           150    49 brown         feminine 
 6 Owen Lars             178   120 brown, grey   masculine
 7 Beru Whitesun lars    165    75 brown         feminine 
 8 R5-D4                  97    32 <NA>          masculine
 9 Biggs Darklighter     183    84 black         masculine
10 Obi-Wan Kenobi        182    77 auburn, white masculine
# … with 77 more rows
…
